…
## Examples

``` r
# Suppose we were tuning a linear regression model that was fit with glmnet
# and there was a predictor that used a spline basis function to enable a
# nonlinear fit. We can use `penalty()` and `mixture()` for the glmnet parts
# and `deg_free()` for the spline.

# A full 3^3 factorial design where the regularization parameter is on
# the log scale:
simple_set <- grid_regular(penalty(), mixture(), deg_free(), levels = 3)
simple_set
#> # A tibble: 27 × 3
#>         penalty mixture deg_free
#>           <dbl>   <dbl>    <int>
#>  1 0.0000000001     0          1
#>  2 0.00001          0          1
#>  3 1                0          1
#>  4 0.0000000001     0.5        1
#>  5 0.00001          0.5        1
#>  6 1                0.5        1
#>  7 0.0000000001     1          1
#>  8 0.00001          1          1
#>  9 1                1          1
#> 10 0.0000000001     0          3
#> # ℹ 17 more rows
…
